{
  "project_info": {
    "project_number": "882242598948",
    "firebase_url": "https://driverassistant-c89da.firebaseio.com",
    "project_id": "driverassistant-c89da",
    "storage_bucket": "driverassistant-c89da.appspot.com"
  },
  "client": [
    {
      "client_info": {
        "mobilesdk_app_id": "1:882242598948:android:80d3c0479564cf74",
        "android_client_info": {
          "package_name": "pl.jesmanczyk.android.driverassistant"
        }
      },
      "oauth_client": [
        {
          "client_id": "882242598948-gju3qf12qf8os7shb1c0napndnurdqcu.apps.googleusercontent.com",
          "client_type": 1,
          "android_info": {
            "package_name": "pl.jesmanczyk.android.driverassistant",
            "certificate_hash": "116d77370f3bc1c79b97f39ab6eafffcf09c415c"
          }
        },
        {
          "client_id": "882242598948-kbu00aftaesv2vc4t1v3numf4hcqrljh.apps.googleusercontent.com",
          "client_type": 3
        }
      ],
      "api_key": [
        {
          "current_key": "AIzaSyDEJ3FrXuQoQE5F49NO76D1NGIhvGu2hcE"
        }
      ],
      "services": {
        "analytics_service": {
          "status": 1
        },
        "appinvite_service": {
          "status": 2,
          "other_platform_oauth_client": [
            {
              "client_id": "882242598948-kbu00aftaesv2vc4t1v3numf4hcqrljh.apps.googleusercontent.com",
              "client_type": 3
            }
          ]
        },
        "ads_service": {
          "status": 2
        }
      }
    }
  ],
  "configuration_version": "1"
}